…
final_species_list_26 <- X20210428_metaphlan_Foodbionet_final_species %>% 
   mutate(Species = species_new) %>% arrange(Species) %>% select(-species_new) 

 
# Update names
final_species_list_26 <- update_names(final_species_list_26)
species_colors <- update_names(species_colors)
 
  
# Result
species_colors
```

    ## # A tibble: 28 x 2
    ##    color     Species                           
    ##    <chr>     <chr>                             
    ##  1 #17C3B2FF Bifidobacterium_animalis          
    ##  2 #16C3B396 Brevibacterium_aurantiacum        
    ##  3 #14C2B14B Brevibacterium_linens             
    ##  4 #A7C5DA4B Companilactobacillus_versmoldensis
    ##  5 GREY      Corynebacterium_casei             
    ##  6 GREY      Cutibacterium_acnes               
    ##  7 #A7BED3FF Lacticaseibacillus_casei          
    ##  8 #A7C5DA96 Lacticaseibacillus_rhamnosus      
    ##  9 #A3758A32 Lactiplantibacillus_plantarum     
    ## 10 #FDC2B496 Lactobacillus_acidophilus         
    ## # ... with 18 more rows
…
``` r
  genome_count_SEL185
```

    ## # A tibble: 185 x 2
    ##    count Species                      
    ##    <dbl> <chr>                        
    ##  1   500 Streptococcus_agalactiae     
    ##  2     3 Kurthia_sp_11kri321          
    ##  3     2 Brachybacterium_saurashtrense
    ##  4    34 Carnobacterium_maltaromaticum
    ##  5     7 Lactobacillus_brevis         
    ##  6    37 Pseudomonas_lundensis        
    ##  7    22 Kocuria_rhizophila           
    ##  8    17 Leuconostoc_lactis           
    ##  9   122 Streptococcus_thermophilus   
    ## 10   104 Halomonas_sp_JB37            
    ## # ... with 175 more rows

``` r
  genome_count_TOTAL
```

    ## # A tibble: 185 x 2
    ##    Species                                count
    ##    <chr>                                  <dbl>
    ##  1 Acidipropionibacterium_acidipropionici     8
    ##  2 Acinetobacter_baumannii                  500
    ##  3 Acinetobacter_johnsonii                   38
    ##  4 Acinetobacter_nosocomialis               152
    ##  5 Aerococcus_urinaeequi                      8
    ##  6 Aerococcus_viridans                        7
    ##  7 Agrococcus_casei                           1
    ##  8 Alkalibacterium_gilvum                     1
    ##  9 Bacillus_aerius                            2
    ## 10 Bacillus_coagulans                        11
    ## # ... with 175 more rows
…
## distances and clusters

``` r
CRISPRscope_tbl_26 %>% group_by(cluster_spacer_identity) %>% summarise(n_diff_seq_per_cluster = n_distinct(SpacerSeq))
```

    ## # A tibble: 16,506 x 2
    ##    cluster_spacer_identity n_diff_seq_per_cluster
    ##                      <dbl>                  <int>
    ##  1                      19                      2
    ##  2                      20                      1
    ##  3                      21                      1
    ##  4                      22                      1
    ##  5                      23                      1
    ##  6                      24                      1
    ##  7                      25                      1
    ##  8                      27                      2
    ##  9                      28                      1
    ## 10                      29                      1
    ## # ... with 16,496 more rows
…
``` r
CRISPRscope_tbl_26 %>% group_by(cluster_spacer_identity) %>% dplyr::count()
```

    ## # A tibble: 16,506 x 2
    ## # Groups:   cluster_spacer_identity [16,506]
    ##    cluster_spacer_identity     n
    ##                      <dbl> <int>
    ##  1                      19     2
    ##  2                      20     1
    ##  3                      21     1
    ##  4                      22     1
    ##  5                      23     1
    ##  6                      24     1
    ##  7                      25     1
    ##  8                      27     2
    ##  9                      28     1
    ## 10                      29     1
    ## # ... with 16,496 more rows

``` r
CRISPRscope_tbl_26 %>% group_by(cluster_spacer_identity) %>% dplyr::count() %>% filter(n==2)
```

    ## # A tibble: 2,894 x 2
    ## # Groups:   cluster_spacer_identity [2,894]
    ##    cluster_spacer_identity     n
    ##                      <dbl> <int>
    ##  1                      19     2
    ##  2                      27     2
    ##  3                      58     2
    ##  4                     125     2
    ##  5                     134     2
    ##  6                     202     2
    ##  7                     244     2
    ##  8                     336     2
    ##  9                     365     2
    ## 10                     439     2
    ## # ... with 2,884 more rows
…
# Percentage of repeats not shared

total_cluster <- length(unique(CRISPRscope_tbl_26$cluster_repeat_identity))


# Try to show for each cluster if there is only one cas-type

cls_tmp <- CRISPRscope_tbl_26 %>% select(Cas_subtype, cluster_repeat_identity) %>% unique()

# There is only one subtype per cluster -> we can put the cas-subtype for the x axis
cls_tmp %>% dplyr::count(cluster_repeat_identity)
```

    ## # A tibble: 112 x 2
    ##    cluster_repeat_identity     n
    ##                      <dbl> <int>
    ##  1                      81     1
    ##  2                      97     1
    ##  3                     102     1
    ##  4                     106     1
    ##  5                     108     1
    ##  6                     112     1
    ##  7                     115     1
    ##  8                     119     1
    ##  9                     135     1
    ## 10                     138     2
    ## # ... with 102 more rows
…
preplot_dr_cluster_noorder <- preplot_dr_cluster

preplot_dr_cluster$Organism = factor(preplot_dr_cluster$Organism, levels = species_levels_21)



preplot_dr_cluster <- preplot_dr_cluster %>% arrange(desc(Organism)) %>% mutate(Organism_formated = gsub("_", " ", Organism))

preplot_dr_cluster
```

    ## # A tibble: 1,885 x 10
    ##    Organism    Strain  cluster_repeat_~ Cas_subtype species_type cls_type n_tile
    ##    <fct>       <chr>              <dbl> <chr>       <chr>        <chr>     <int>
    ##  1 Corynebact~ GCF.00~              574 I-E         generalist   I-E - r~      2
    ##  2 Corynebact~ GCF.00~              462 I-E         generalist   I-E - r~      3
    ##  3 Corynebact~ GCF.01~              462 I-E         generalist   I-E - r~      3
    ##  4 Corynebact~ GCF.00~              574 I-E         generalist   I-E - r~      2
    ##  5 Corynebact~ GCF.00~              498 I-E         generalist   I-E - r~      2
    ##  6 Corynebact~ FAM245~              498 I-E         generalist   I-E - r~      2
    ##  7 Corynebact~ FAM245~              462 I-E         generalist   I-E - r~      3
    ##  8 Propioniba~ GCF.90~              274 I-G         mesophilic   I-G - r~     71
    ##  9 Propioniba~ GCF.90~              804 I-G         mesophilic   I-G - r~      1
    ## 10 Propioniba~ GCF.00~              274 I-G         mesophilic   I-G - r~     71
    ## # ... with 1,875 more rows, and 3 more variables: n_repeat <int>, ratio <dbl>,
    ## #   Organism_formated <chr>
…
``` r
preplot_dr_cluster_x <- preplot_dr_cluster %>% mutate(cls_type = factor(cls_type, levels = clst_lst_order))
```

``` r
preplot_dr_cluster_x
```

    ## # A tibble: 1,885 x 10
    ##    Organism    Strain  cluster_repeat_~ Cas_subtype species_type cls_type n_tile
    ##    <fct>       <chr>              <dbl> <chr>       <chr>        <fct>     <int>
    ##  1 Corynebact~ GCF.00~              574 I-E         generalist   I-E - r~      2
    ##  2 Corynebact~ GCF.00~              462 I-E         generalist   I-E - r~      3
    ##  3 Corynebact~ GCF.01~              462 I-E         generalist   I-E - r~      3
    ##  4 Corynebact~ GCF.00~              574 I-E         generalist   I-E - r~      2
    ##  5 Corynebact~ GCF.00~              498 I-E         generalist   I-E - r~      2
    ##  6 Corynebact~ FAM245~              498 I-E         generalist   I-E - r~      2
    ##  7 Corynebact~ FAM245~              462 I-E         generalist   I-E - r~      3
    ##  8 Propioniba~ GCF.90~              274 I-G         mesophilic   I-G - r~     71
    ##  9 Propioniba~ GCF.90~              804 I-G         mesophilic   I-G - r~      1
    ## 10 Propioniba~ GCF.00~              274 I-G         mesophilic   I-G - r~     71
    ## # ... with 1,875 more rows, and 3 more variables: n_repeat <int>, ratio <dbl>,
    ## #   Organism_formated <chr>
…
# <stat> spacers numbers

``` r
# Number of spacers (100% ID)
CRISPRscope_tbl_185 %>% select(cluster_spacer_identity) %>% distinct(cluster_spacer_identity) %>% arrange(cluster_spacer_identity) # 56,614 different
```

    ## # A tibble: 56,796 x 1
    ##    cluster_spacer_identity
    ##                      <dbl>
    ##  1                      18
    ##  2                      19
    ##  3                      20
    ##  4                      21
    ##  5                      22
    ##  6                      23
    ##  7                      24
    ##  8                      25
    ##  9                      26
    ## 10                      27
    ## # ... with 56,786 more rows

``` r
CRISPRscope_tbl_26 %>% select(cluster_spacer_identity) %>% distinct(cluster_spacer_identity) %>% arrange(cluster_spacer_identity) # 16,332 different 
```

    ## # A tibble: 16,506 x 1
    ##    cluster_spacer_identity
    ##                      <dbl>
    ##  1                      19
    ##  2                      20
    ##  3                      21
    ##  4                      22
    ##  5                      23
    ##  6                      24
    ##  7                      25
    ##  8                      27
    ##  9                      28
    ## 10                      29
    ## # ... with 16,496 more rows

``` r
#Unique spacers

cluster_count <- CRISPRscope_tbl_26 %>% 
  select(Organism, Strain, Spacer, cluster_spacer_identity) %>% 
  distinct() %>% 
  dplyr::count(cluster_spacer_identity) %>% 
  arrange(desc(n))

cluster_count
```

    ## # A tibble: 16,506 x 2
    ##    cluster_spacer_identity     n
    ##                      <dbl> <int>
    ##  1                   15147   143
    ##  2                   20119   139
    ##  3                   20018   133
    ##  4                   11694   129
    ##  5                   11686   121
    ##  6                    9787   117
    ##  7                   15149   116
    ##  8                   15151   115
    ##  9                   15148   114
    ## 10                   11687   111
    ## # ... with 16,496 more rows
…
    ## [1] 2.796498

``` r
sd(cluster_count$n)
```

    ## [1] 7.38253

``` r
cluster_count %>% filter(n > 1) # 6,401
```

    ## # A tibble: 6,406 x 2
    ##    cluster_spacer_identity     n
    ##                      <dbl> <int>
    ##  1                   15147   143
    ##  2                   20119   139
    ##  3                   20018   133
    ##  4                   11694   129
    ##  5                   11686   121
    ##  6                    9787   117
    ##  7                   15149   116
    ##  8                   15151   115
    ##  9                   15148   114
    ## 10                   11687   111
    ## # ... with 6,396 more rows

``` r
cluster_count %>% filter(n == 1) # 9,931
```

    ## # A tibble: 10,100 x 2
    ##    cluster_spacer_identity     n
    ##                      <dbl> <int>
    ##  1                      20     1
    ##  2                      21     1
    ##  3                      22     1
    ##  4                      23     1
    ##  5                      24     1
    ##  6                      25     1
    ##  7                      28     1
    ##  8                      29     1
    ##  9                      30     1
    ## 10                      31     1
    ## # ... with 10,090 more rows
…
``` r
CRISPRscope_tbl_26 %>% select(Organism, cluster_spacer_identity) %>% 
  distinct() %>% # cluster present at least once in an organism 
  group_by(Organism) %>% 
  summarise(Organism, cluster_spacer_identity)%>% 
  arrange(cluster_spacer_identity) %>% 
  distinct() %>% 
  mutate(cluster_spacer_identity = as_factor(cluster_spacer_identity), Organism = as_factor(Organism))
```

    ## `summarise()` has grouped output by 'Organism'. You can override using the `.groups` argument.

    ## # A tibble: 16,506 x 2
    ## # Groups:   Organism [21]
    ##    Organism                         cluster_spacer_identity
    ##    <fct>                            <fct>                  
    ##  1 Lactobacillus_delbrueckii        19                     
    ##  2 Lactobacillus_helveticus         20                     
    ##  3 Mammaliicoccus_sciuri            21                     
    ##  4 Mammaliicoccus_sciuri            22                     
    ##  5 Mammaliicoccus_sciuri            23                     
    ##  6 Mammaliicoccus_sciuri            24                     
    ##  7 Mammaliicoccus_sciuri            25                     
    ##  8 Propionibacterium_freudenreichii 27                     
    ##  9 Propionibacterium_freudenreichii 28                     
    ## 10 Propionibacterium_freudenreichii 29                     
    ## # ... with 16,496 more rows

``` r
# Without the distinct, the total number of rows is 50,794. 
# We have 16,332 different spacers in total, meaning that a lot of them are present multiple time. 

CRISPRscope_tbl_26 %>% select(Organism, Strain, cluster_spacer_identity) %>% 
  group_by(Organism) %>% 
  summarise(Organism, Strain, cluster_spacer_identity) %>% 
  arrange(cluster_spacer_identity) %>% 
  mutate(cluster_spacer_identity = as_factor(cluster_spacer_identity), Organism = as_factor(Organism))
```

    ## `summarise()` has grouped output by 'Organism'. You can override using the `.groups` argument.

    ## # A tibble: 50,955 x 3
    ## # Groups:   Organism [21]
    ##    Organism                         Strain          cluster_spacer_identity
    ##    <fct>                            <chr>           <fct>                  
    ##  1 Lactobacillus_delbrueckii        GCF.002000885.1 19                     
    ##  2 Lactobacillus_delbrueckii        GCF.002000885.1 19                     
    ##  3 Lactobacillus_helveticus         GCF.017154195.1 20                     
    ##  4 Mammaliicoccus_sciuri            GCF.009830405.1 21                     
    ##  5 Mammaliicoccus_sciuri            GCF.009830405.1 22                     
    ##  6 Mammaliicoccus_sciuri            GCF.009830405.1 23                     
    ##  7 Mammaliicoccus_sciuri            GCF.009830405.1 24                     
    ##  8 Mammaliicoccus_sciuri            GCF.017028935.1 25                     
    ##  9 Propionibacterium_freudenreichii GCF.900000075.1 27                     
    ## 10 Propionibacterium_freudenreichii GCF.001368955.1 27                     
    ## # ... with 50,945 more rows

``` r
# With the distinct we have 45'016 spacers. meaning 
CRISPRscope_tbl_26 %>% select(Organism, Strain, cluster_spacer_identity) %>% 
  group_by(Organism) %>% 
  summarise(Organism, Strain, cluster_spacer_identity) %>% 
  arrange(cluster_spacer_identity) %>% 
  distinct() %>% 
  mutate(cluster_spacer_identity = as_factor(cluster_spacer_identity), Organism = as_factor(Organism))
```

    ## `summarise()` has grouped output by 'Organism'. You can override using the `.groups` argument.

    ## # A tibble: 44,897 x 3
    ## # Groups:   Organism [21]
    ##    Organism                         Strain          cluster_spacer_identity
    ##    <fct>                            <chr>           <fct>                  
    ##  1 Lactobacillus_delbrueckii        GCF.002000885.1 19                     
    ##  2 Lactobacillus_helveticus         GCF.017154195.1 20                     
    ##  3 Mammaliicoccus_sciuri            GCF.009830405.1 21                     
    ##  4 Mammaliicoccus_sciuri            GCF.009830405.1 22                     
    ##  5 Mammaliicoccus_sciuri            GCF.009830405.1 23                     
    ##  6 Mammaliicoccus_sciuri            GCF.009830405.1 24                     
    ##  7 Mammaliicoccus_sciuri            GCF.017028935.1 25                     
    ##  8 Propionibacterium_freudenreichii GCF.900000075.1 27                     
    ##  9 Propionibacterium_freudenreichii GCF.001368955.1 27                     
    ## 10 Propionibacterium_freudenreichii GCF.900000075.1 28                     
    ## # ... with 44,887 more rows
…
As only the cluster representative are taken for the pairwise comparison
(for optimisation reason mainly), we need to fill-in the 0 distance
values.

``` r
# Number of clusters with more than one spacers
# 6448
CRISPRscope_tbl_26 %>% select(cluster_spacer_identity) %>% 
  count(cluster_spacer_identity) %>% 
  filter(n > 1) %>% 
  select(cluster_spacer_identity)
```

    ## # A tibble: 6,648 x 1
    ##    cluster_spacer_identity
    ##                      <dbl>
    ##  1                      19
    ##  2                      27
    ##  3                      58
    ##  4                     125
    ##  5                     134
    ##  6                     202
    ##  7                     244
    ##  8                     336
    ##  9                     365
    ## 10                     426
    ## # ... with 6,638 more rows
…
# TMP separate type/subtype
tmp_CRISPRscope_tbl_26 <- CRISPRscope_tbl_26 %>% separate(Cas_subtype, into = c("type", "subtype"), sep="-") 

edit6_sequences_type <- merged_slices_custom_dist6 %>% filter(EDIT > 0) %>% 
  left_join(tmp_CRISPRscope_tbl_26 %>% select(cluster_spacer_identity, SpacerSeq, type), by=c("clst1" = "cluster_spacer_identity")) %>% 
  dplyr::rename(seq1 = SpacerSeq) %>% dplyr::rename(type1 = type) %>% distinct() %>% 
  left_join(tmp_CRISPRscope_tbl_26 %>% select(cluster_spacer_identity, SpacerSeq, type), by=c("clst2" = "cluster_spacer_identity")) %>% 
  dplyr::rename(seq2 = SpacerSeq) %>% dplyr::rename(type2 = type)  %>% distinct()

edit6_sequences_type # 2330 pairs
```

    ## # A tibble: 2,330 x 7
    ##    clst1 clst2  EDIT seq1                    type1 seq2                    type2
    ##    <dbl> <dbl> <dbl> <chr>                   <chr> <chr>                   <chr>
    ##  1 25760 42841     5 GCCGGTATTCAGTGCATCATGG~ I     TTTGGAACGACCATGATGCACT~ I    
    ##  2 23611 42842     5 TACGTCGCCGATTACGTTCAAT~ I     ACGACGCCGATTACATTCAACG~ I    
    ##  3 25788 42842     6 GTTGCATTATCGTTGAACGTAA~ I     ACGACGCCGATTACATTCAACG~ I    
    ##  4 23821 42846     3 CCCTGATGTGATGGTGCCGGCC~ I     CCCTGATGTGAAGGTGCCGGCC~ I    
    ##  5 23443 42871     6 TGGAGCAGGTCAAGCTATTCAA~ I     CCGTAAGTAATTGAACATCTTG~ I    
    ##  6 13093 42885     4 CGACCTGAATTCAGTCGGCATC~ I     GACCTGAAGTCAGTCGGCATCC~ I    
    ##  7 56529 42896     5 AGGCAGAAAAGAAGTATTTTGG~ II    TTAAGCAGAAAAGAAATATTTT~ II   
    ##  8 46780 44163     1 AAAAAAGCCGCGGAACTTCTCG~ II    GTCTCAGCCCGAGAAGTTCCGC~ II   
    ##  9 46780 44163     1 GTCTAGCCCGAGAAGTTCCGCG~ II    GTCTCAGCCCGAGAAGTTCCGC~ II   
    ## 10  4002  4056     2 TTCACAAAAGTTTCTACAGGTG~ I     TTCACAAAAGTTTCTACAGGTG~ I    
    ## # ... with 2,320 more rows
…
  #select(Strain1, Strain2, ANI, EDIT) %>% drop_na()

plt3 <- EDIT_VS_ANI_VS_LEN_V3 %>% ggplot(aes(x=ratio)) +
  geom_density(color="#a5c2bb", alpha=.4) +
  theme_classic() +
  xlab("") +
  ylab("")

EDIT_VS_ANI_VS_LEN_V3
```

    ## # A tibble: 14,795 x 3
    ##    EDIT_len ANI_100 ratio
    ##       <dbl>   <dbl> <dbl>
    ##  1    14.4    1.26  11.4 
    ##  2    14.4    1.26  11.4 
    ##  3    14.4    1.30  11.1 
    ##  4    17.3    1.26  13.7 
    ##  5     8.66   1.37   6.30
    ##  6    17.3    1.51  11.5 
    ##  7    11.5    1.15  10.1 
    ##  8    11.5    1.07  10.8 
    ##  9    14.4    0.798 18.1 
    ## 10     2.89   2.01   1.44
    ## # ... with 14,785 more rows
…
