…
# CRISPRscope_meta_tbl %>% filter(ProjectID == "CheeseRaclette") %>% distinct(SRA_ID)
```

# Low-high quality samples content

mark low quality samples in id\_data as samples without CRISPR

``` r
id_data  #=> 203 rows 
```

    ## # A tibble: 203 x 4
    ##    ProjectID  SRA_ID     reads_count no_crispr
    ##    <chr>      <chr>            <dbl> <lgl>    
    ##  1 PRJEB32768 ERR3340746     9021920 FALSE    
    ##  2 PRJEB32768 ERR3340747     8980400 FALSE    
    ##  3 PRJEB32768 ERR3340748     8134426 FALSE    
    ##  4 PRJEB32768 ERR3340749     9105958 FALSE    
    ##  5 PRJEB32768 ERR3340750     6212746 FALSE    
    ##  6 PRJEB32768 ERR3340751     8519550 FALSE    
    ##  7 PRJEB32768 ERR3340752     7947418 FALSE    
    ##  8 PRJEB32768 ERR3340753     6489248 FALSE    
    ##  9 PRJEB32768 ERR3340754     8642442 FALSE    
    ## 10 PRJEB32768 ERR3340755     7885652 FALSE    
    ## # ... with 193 more rows

``` r
sample_data
```

    ## # A tibble: 203 x 2
    ##    sra_sample ProjectID 
    ##    <chr>      <chr>     
    ##  1 ERR3340746 PRJEB32768
    ##  2 ERR3340747 PRJEB32768
    ##  3 ERR3340748 PRJEB32768
    ##  4 ERR3340749 PRJEB32768
    ##  5 ERR3340750 PRJEB32768
    ##  6 ERR3340751 PRJEB32768
    ##  7 ERR3340752 PRJEB32768
    ##  8 ERR3340753 PRJEB32768
    ##  9 ERR3340754 PRJEB32768
    ## 10 ERR3340755 PRJEB32768
    ## # ... with 193 more rows
…
#CRISPRscope_meta_cctyper_cas_types %>% summarise(ndis_seq = n_distinct(Sequence), nseq = n())


# Join the CRISPRscope_meta_cctyper_cas_types to the CRISPRscope_meta_tbl 

CRISPRscope_meta_tbl$repeat_seq <- as.factor(CRISPRscope_meta_tbl$repeat_seq)
CRISPRscope_meta_cctyper_cas_types$Sequence <- as.factor(CRISPRscope_meta_cctyper_cas_types$Sequence)


CRISPRscope_meta_tbl <- left_join(CRISPRscope_meta_tbl, CRISPRscope_meta_cctyper_cas_types, by = c("repeat_seq" = "Sequence"))
CRISPRscope_meta_tbl
```

    ## # A tibble: 25,626 x 22
    ##    ProjectID    SRA_ID GID   SPID  Coverage spacer_seq            cluster_spacer
    ##    <chr>        <chr>  <chr> <chr> <chr>    <chr>                          <dbl>
    ##  1 CheeseRacle~ 1944   G36   SP451 7        TACGTTCTTTGAACCAAGCT~           1676
    ##  2 CheeseRacle~ 1944   G36   SP6   10       GTGGATATTTTGAACTATTG~           1677
    ##  3 CheeseRacle~ 1944   G36   SP11  34       GTAGCTCTCTTAATGTTGTC~            544
    ##  4 CheeseRacle~ 1944   G36   SP16  58       GATAGATTCCTGGCAATTCT~           1678
    ##  5 CheeseRacle~ 1944   G36   SP13~ 2        TTTCTAATTCAATCATCAGC~           2263
    ##  6 CheeseRacle~ 1944   G36   SP19  45       TACCGTCTAACAAATTCAAA~           2264
    ##  7 CheeseRacle~ 1944   G36   SP153 16       TTCATTTCCATCATGCTTCT~           1679
    ##  8 CheeseRacle~ 1944   G36   SP186 34       CAAATTTTAAAGGCTGTAAA~           1124
    ##  9 CheeseRacle~ 1944   G36   SP850 2        CGATAAGGTCAACAGAATGT~            411
    ## 10 CheeseRacle~ 1944   G36   SP26  21       AGGCATTGCCTGAGAGATTA~            412
    ## # ... with 25,616 more rows, and 15 more variables:
    ## #   cluster_spacer_identity <dbl>, identity_spacer_cluster <dbl>,
    ## #   repeat_seq <fct>, cluster_repeat <dbl>, cluster_repeat_identity <dbl>,
    ## #   identity_repeat_cluster <dbl>, spacer_length <int>, repeat_length <int>,
    ## #   read_count <dbl>, repeat_per_milread <dbl>, total_repeats <int>,
    ## #   spacer_per_milread <dbl>, total_spacers <int>, Subtype <chr>,
    ## #   Prediction_probability <dbl>
…
\#———————————–

# Available datasets

``` r
# NO QUALITY FILTERING ON THESE
# spacers_data 
# repeats_data 
# stats_data 
id_data 
```

    ## # A tibble: 203 x 4
    ##    ProjectID  SRA_ID     reads_count no_crispr
    ##    <chr>      <chr>            <dbl> <lgl>    
    ##  1 PRJEB32768 ERR3340746     9021920 FALSE    
    ##  2 PRJEB32768 ERR3340747     8980400 FALSE    
    ##  3 PRJEB32768 ERR3340748     8134426 FALSE    
    ##  4 PRJEB32768 ERR3340749     9105958 FALSE    
    ##  5 PRJEB32768 ERR3340750     6212746 FALSE    
    ##  6 PRJEB32768 ERR3340751     8519550 FALSE    
    ##  7 PRJEB32768 ERR3340752     7947418 FALSE    
    ##  8 PRJEB32768 ERR3340753     6489248 FALSE    
    ##  9 PRJEB32768 ERR3340754     8642442 FALSE    
    ## 10 PRJEB32768 ERR3340755     7885652 FALSE    
    ## # ... with 193 more rows

``` r
# matched_cas_data 

# CRISPRCasTyper - Repeat -> cas type identification
CRISPRscope_meta_cctyper_cas_types
```

    ## # A tibble: 556 x 3
    ##    Sequence                                Subtype Prediction_probability
    ##    <fct>                                   <chr>                    <dbl>
    ##  1 AAATACAACCGCTCCTCGATAAAAGGGGACGAGAACT   III-A                    0.987
    ##  2 GATCTATTTTAGCTGAAAACTGAAGGAATCAATAGC    II-C                     0.966
    ##  3 GTTGAACTACTCATTGATTTGATACTCTTCTAAAAC    II-A                     0.999
    ##  4 AGGATCACCCCCGCATGTGCGGGTAATAC           I-E                      0.999
    ##  5 ATTTACATTCCACTATTTTTAGATTTGTAC          I-B                      0.996
    ##  6 GTTGTACAGTTACTTAAATCTTGAGAGTACAAAAAC    II-C                     0.528
    ##  7 GGGTTTAACCTTATTGATTTAACATCCTTCTAAAAC    II-A                     0.998
    ##  8 ATTTCAATTCACGCACTCATATAGAGTGCGAC        I-C                      0.971
    ##  9 GCTTTAGAATCTTGGTAAATCAATAGGGTCAAGAACTTA II-A                     0.975
    ## 10 CGGTTTATCCCCGCTGGCGCGGGGAACAC           I-E                      1.00 
    ## # ... with 546 more rows

``` r
# Repeats added to spacers_data
CRISPRscope_meta_tbl
```

    ## # A tibble: 25,626 x 22
    ##    ProjectID    SRA_ID GID   SPID  Coverage spacer_seq            cluster_spacer
    ##    <chr>        <chr>  <chr> <chr> <chr>    <chr>                          <dbl>
    ##  1 CheeseRacle~ 1944   G36   SP451 7        TACGTTCTTTGAACCAAGCT~           1676
    ##  2 CheeseRacle~ 1944   G36   SP6   10       GTGGATATTTTGAACTATTG~           1677
    ##  3 CheeseRacle~ 1944   G36   SP11  34       GTAGCTCTCTTAATGTTGTC~            544
    ##  4 CheeseRacle~ 1944   G36   SP16  58       GATAGATTCCTGGCAATTCT~           1678
    ##  5 CheeseRacle~ 1944   G36   SP13~ 2        TTTCTAATTCAATCATCAGC~           2263
    ##  6 CheeseRacle~ 1944   G36   SP19  45       TACCGTCTAACAAATTCAAA~           2264
    ##  7 CheeseRacle~ 1944   G36   SP153 16       TTCATTTCCATCATGCTTCT~           1679
    ##  8 CheeseRacle~ 1944   G36   SP186 34       CAAATTTTAAAGGCTGTAAA~           1124
    ##  9 CheeseRacle~ 1944   G36   SP850 2        CGATAAGGTCAACAGAATGT~            411
    ## 10 CheeseRacle~ 1944   G36   SP26  21       AGGCATTGCCTGAGAGATTA~            412
    ## # ... with 25,616 more rows, and 15 more variables:
    ## #   cluster_spacer_identity <dbl>, identity_spacer_cluster <dbl>,
    ## #   repeat_seq <fct>, cluster_repeat <dbl>, cluster_repeat_identity <dbl>,
    ## #   identity_repeat_cluster <dbl>, spacer_length <int>, repeat_length <int>,
    ## #   read_count <dbl>, repeat_per_milread <dbl>, total_repeats <int>,
    ## #   spacer_per_milread <dbl>, total_spacers <int>, Subtype <chr>,
    ## #   Prediction_probability <dbl>

``` r
CRISPRscope_meta_tbl_filtered
```

    ## # A tibble: 24,111 x 22
    ##    ProjectID    SRA_ID GID   SPID  Coverage spacer_seq            cluster_spacer
    ##    <chr>        <chr>  <chr> <chr> <chr>    <chr>                          <dbl>
    ##  1 CheeseRacle~ 1944   G36   SP451 7        TACGTTCTTTGAACCAAGCT~           1676
    ##  2 CheeseRacle~ 1944   G36   SP6   10       GTGGATATTTTGAACTATTG~           1677
    ##  3 CheeseRacle~ 1944   G36   SP11  34       GTAGCTCTCTTAATGTTGTC~            544
    ##  4 CheeseRacle~ 1944   G36   SP16  58       GATAGATTCCTGGCAATTCT~           1678
    ##  5 CheeseRacle~ 1944   G36   SP13~ 2        TTTCTAATTCAATCATCAGC~           2263
    ##  6 CheeseRacle~ 1944   G36   SP19  45       TACCGTCTAACAAATTCAAA~           2264
    ##  7 CheeseRacle~ 1944   G36   SP153 16       TTCATTTCCATCATGCTTCT~           1679
    ##  8 CheeseRacle~ 1944   G36   SP186 34       CAAATTTTAAAGGCTGTAAA~           1124
    ##  9 CheeseRacle~ 1944   G36   SP850 2        CGATAAGGTCAACAGAATGT~            411
    ## 10 CheeseRacle~ 1944   G36   SP26  21       AGGCATTGCCTGAGAGATTA~            412
    ## # ... with 24,101 more rows, and 15 more variables:
    ## #   cluster_spacer_identity <dbl>, identity_spacer_cluster <dbl>,
    ## #   repeat_seq <fct>, cluster_repeat <dbl>, cluster_repeat_identity <dbl>,
    ## #   identity_repeat_cluster <dbl>, spacer_length <int>, repeat_length <int>,
    ## #   read_count <dbl>, repeat_per_milread <dbl>, total_repeats <int>,
    ## #   spacer_per_milread <dbl>, total_spacers <int>, Subtype <chr>,
    ## #   Prediction_probability <dbl>
…
