…
``` r
metaData_updated <- sample_crispr_content %>%
  left_join(CRISPRscope_meta_Project_Sample_MANUAL_METADATA %>% renameSamples(), by = c("ProjectID", "SRA_ID")) %>%
  select(-...1.y, -CRISPR.y) %>% dplyr::rename(contains_crispr = CRISPR.x) %>% 
  arrange(ProjectID, SRA_ID)

metaData_updated %>% write.csv(paste(data_folder, "/IMPORT/metadata/CRISPRscope_meta_Project_Sample_MANUAL_METADATA_updated.csv", sep=""))

metaData_updated
```

    ## # A tibble: 187 x 10
    ##    ...1.x ProjectID           SRA_ID    contains_crispr BioSample_ID Cheese_type
    ##     <dbl> <chr>               <chr>     <lgl>           <chr>        <chr>      
    ##  1    118 20201217_metagenom~ 24h_101_~ TRUE            <NA>         <NA>       
    ##  2    119 20201217_metagenom~ 24h_105_~ TRUE            <NA>         <NA>       
    ##  3    120 20201217_metagenom~ 24h_115_~ TRUE            <NA>         <NA>       
    ##  4    121 20201217_metagenom~ 24h_124_~ TRUE            <NA>         <NA>       
    ##  5    122 20201217_metagenom~ 24h_150_~ TRUE            <NA>         <NA>       
    ##  6    123 20201217_metagenom~ 24h_190_~ TRUE            <NA>         <NA>       
    ##  7    124 20201217_metagenom~ 24h_203_~ TRUE            <NA>         <NA>       
    ##  8    125 20201217_metagenom~ 24h_280_~ TRUE            <NA>         <NA>       
    ##  9    126 20201217_metagenom~ 24h_302_~ TRUE            <NA>         <NA>       
    ## 10    127 20201217_metagenom~ 24h_305_~ TRUE            <NA>         <NA>       
    ## # ... with 177 more rows, and 4 more variables:
    ## #   Sample_location (core rind) <chr>, Animal <chr>, Milk <chr>,
    ## #   Description <chr>
…
# # TODO: to match all the graphs, maybe order by the same as the "number of arrays " graph.
# 
# nb_sp_nrm <- nb_spacers_norm(stats_data) %>%
#   arrange(normalized_total) %>%
#   mutate(SRA_ID = fct_reorder(SRA_ID, normalized_total))
# 



CRISPRscope_meta_tbl_filtered %>% select(spacer_per_milread) %>% distinct()
```

    ## # A tibble: 163 x 1
    ##    spacer_per_milread
    ##                 <dbl>
    ##  1            1.89   
    ##  2            1.08   
    ##  3            2.06   
    ##  4            0.679  
    ##  5            0.865  
    ##  6            4.12   
    ##  7            0.00300
    ##  8           13.3    
    ##  9            9.78   
    ## 10           11.4    
    ## # ... with 153 more rows
…
