…
unique_genome_repeats <- CRISPRscope_tbl_185 %>% select(Organism, Strain, cluster_repeat_identity) %>% distinct(Organism, Strain, cluster_repeat_identity)
unique_metagenome_repeats <- CRISPRscope_meta_tbl_filtered %>% select(ProjectID, SRA_ID, GID, SPID, cluster_repeat_identity) %>% distinct(ProjectID, SRA_ID, GID, SPID, cluster_repeat_identity)


# --------- Spacers ----------
shared_spacers <- inner_join(sub_gen_sp, sub_metagen_sp, by = c("cluster_spacer_identity" = "cluster_spacer_identity"), copy = FALSE)

shared_spacers %>% group_by(Organism, ProjectID) %>% summarise(nb_match_spacer_in_meta = n())
```

    ## `summarise()` has grouped output by 'Organism'. You can override using the `.groups` argument.

    ## # A tibble: 40 x 3
    ## # Groups:   Organism [27]
    ##    Organism                      ProjectID      nb_match_spacer_in_meta
    ##    <chr>                         <chr>                            <int>
    ##  1 Bifidobacterium_animalis      PRJNA603575                       4002
    ##  2 Bifidobacterium_breve         PRJNA603575                        681
    ##  3 Enterococcus_faecalis         PRJNA286900                         50
    ##  4 Escherichia_coli              CheeseRaclette                     120
    ##  5 Hafnia_paralvei               PRJEB32768                           4
    ##  6 Halomonas_sp_JB37             PRJEB32768                          13
    ##  7 Klebsiella_oxytoca            CheeseRaclette                       4
    ##  8 Lacticaseibacillus_casei      CheeseRaclette                      17
    ##  9 Lacticaseibacillus_rhamnosus  PRJNA286900                        131
    ## 10 Lactiplantibacillus_plantarum CheeseRaclette                     236
    ## # ... with 30 more rows

``` r
# --------- Repeats ----------

shared_repeats <- inner_join(sub_gen_dr, sub_metagen_dr, by = c("cluster_repeat_identity"="cluster_repeat_identity"), copy = FALSE)

shared_repeats %>% group_by(Organism, ProjectID) %>% summarise(nb_match_repeat_in_meta = n())
```

    ## `summarise()` has grouped output by 'Organism'. You can override using the `.groups` argument.

    ## # A tibble: 131 x 3
    ## # Groups:   Organism [66]
    ##    Organism                   ProjectID      nb_match_repeat_in_meta
    ##    <chr>                      <chr>                            <int>
    ##  1 Acinetobacter_baumannii    PRJEB32768                         114
    ##  2 Acinetobacter_nosocomialis PRJEB32768                           7
    ##  3 Bifidobacterium_animalis   PRJNA603575                        276
    ##  4 Bifidobacterium_breve      PRJNA603575                         64
    ##  5 Chryseobacterium_haifense  CheeseRaclette                       1
    ##  6 Citrobacter_braakii        CheeseRaclette                      46
    ##  7 Citrobacter_braakii        PRJEB32768                          46
    ##  8 Citrobacter_freundii       CheeseRaclette                      10
    ##  9 Citrobacter_freundii       PRJEB32768                           9
    ## 10 Citrobacter_freundii       PRJNA286900                          1
    ## # ... with 121 more rows

\#——————————

# Metagenomic spacer / repeat coverage

Compare coverage between metagenome sequences that overlap or not with
genomic sequences

``` r
# Lists of which spacers (unique, cluster 100%) belong to M, G or both.

clst_G                                                          # 56'796    Genomic spacer 100% cluster
```

    ## # A tibble: 56,796 x 1
    ##    cluster
    ##      <dbl>
    ##  1      18
    ##  2      19
    ##  3      20
    ##  4      21
    ##  5      22
    ##  6      23
    ##  7      24
    ##  8      25
    ##  9      26
    ## 10      27
    ## # ... with 56,786 more rows

``` r
clst_M                                                          # 8'244     Metagenomic spacer 100% cluster
```

    ## # A tibble: 8,244 x 1
    ##    cluster
    ##      <dbl>
    ##  1       0
    ##  2       1
    ##  3       2
    ##  4       3
    ##  5       4
    ##  6       5
    ##  7       6
    ##  8       7
    ##  9       8
    ## 10       9
    ## # ... with 8,234 more rows
…
    ## 
    ## i Use `spec()` to retrieve the full column specification for this data.
    ## i Specify the column types or set `show_col_types = FALSE` to quiet this message.

``` r
CRISPR_hits_list <- Blast_nt_vincent_CRISPR_2 %>% select(qseqid) %>% unlist()

CRISPRblast_IMGVR_2
```

    ## # A tibble: 22,645 x 7
    ##    qseqid sseqid             pident mismatch stitle            database hit_type
    ##     <dbl> <chr>               <dbl>    <dbl> <chr>             <chr>    <chr>   
    ##  1      1 IMGVR_UViG_330002~   79.8        8 IMGVR_UViG_33000~ IMGVR    Viral   
    ##  2      2 GCA_002621725.1      83.7        9 GCA_002621725.1   IMGVR    Viral   
    ##  3      3 GCA_002622105.1      83.7        9 GCA_002622105.1   IMGVR    Viral   
    ##  4      4 GCA_002621725.1      82.4       12 GCA_002621725.1   IMGVR    Viral   
    ##  5      5 GCA_003925205.1      81.9        7 GCA_003925205.1   IMGVR    Viral   
    ##  6      6 GCA_003925205.1     100          0 GCA_003925205.1   IMGVR    Viral   
    ##  7      7 IMGVR_UViG_330002~   84.4       12 IMGVR_UViG_33000~ IMGVR    Viral   
    ##  8      8 GCA_002622105.1      84.6       10 GCA_002622105.1   IMGVR    Viral   
    ##  9      9 UGV-GENOME-0220310   84.9        6 UGV-GENOME-02203~ IMGVR    Viral   
    ## 10     15 GCA_002621725.1      83.7        9 GCA_002621725.1   IMGVR    Viral   
    ## # ... with 22,635 more rows

``` r
CRISPRblast_nt_2 
```

    ## # A tibble: 32,521 x 7
    ##    qseqid sseqid       pident mismatch stitle                  database hit_type
    ##     <dbl> <chr>         <dbl>    <dbl> <chr>                   <chr>    <chr>   
    ##  1      0 gi|18515399~  100          0 Streptococcus thermoph~ nt       Bacteri~
    ##  2      1 gi|16054747~  100          0 Streptococcus thermoph~ nt       Bacteri~
    ##  3      2 gi|13410388~   94.9        1 Streptococcus thermoph~ nt       Bacteri~
    ##  4      3 gi|13410390~   96.9        3 Streptococcus thermoph~ nt       Bacteri~
    ##  5      4 gi|11512458~   88.5        8 Streptococcus thermoph~ nt       Bacteri~
    ##  6      5 gi|14183488~   88          7 Streptococcus thermoph~ nt       Bacteri~
    ##  7      6 gi|33927706~   89          5 Streptococcus thermoph~ nt       Bacteri~
    ##  8      7 gi|18687683~   87.9        8 Streptococcus thermoph~ nt       Bacteri~
    ##  9      8 gi|18515399~   89.3        3 Streptococcus thermoph~ nt       Bacteri~
    ## 10      9 gi|18269809~   91          7 Streptococcus thermoph~ nt       Bacteri~
    ## # ... with 32,511 more rows

``` r
CRISPRblast_PLSDB_2 # 3,467
```

    ## # A tibble: 3,467 x 7
    ##    qseqid sseqid    pident mismatch stitle                     database hit_type
    ##     <dbl> <chr>      <dbl>    <dbl> <chr>                      <chr>    <chr>   
    ##  1      2 NZ_AJ242~  100          0 NZ_AJ242479.1 Streptococc~ PLSDB    Plasmid 
    ##  2      3 NZ_AJ242~  100          0 NZ_AJ242479.1 Streptococc~ PLSDB    Plasmid 
    ##  3      4 NZ_AJ242~  100          0 NZ_AJ242479.1 Streptococc~ PLSDB    Plasmid 
    ##  4      5 NZ_AJ242~   97.4        1 NZ_AJ242479.1 Streptococc~ PLSDB    Plasmid 
    ##  5      6 NZ_AJ242~  100          0 NZ_AJ242479.1 Streptococc~ PLSDB    Plasmid 
    ##  6      7 NZ_AJ242~  100          0 NZ_AJ242479.1 Streptococc~ PLSDB    Plasmid 
    ##  7      8 NZ_AJ242~  100          0 NZ_AJ242479.1 Streptococc~ PLSDB    Plasmid 
    ##  8      9 NZ_AJ242~  100          0 NZ_AJ242479.1 Streptococc~ PLSDB    Plasmid 
    ##  9     12 NZ_CP015~   85.7        7 NZ_CP015439.1 Anoxybacill~ PLSDB    Plasmid 
    ## 10     15 NZ_AJ242~   87.5        5 NZ_AJ242479.1 Streptococc~ PLSDB    Plasmid 
    ## # ... with 3,457 more rows
…
Eggnog_results <- MM_ug5vlsop_emapper_annotations %>%
  separate(`#query`, into = c("DB1","accessionID1", "DB2", "accessionID2"), sep = "[|]")
```

    ## Warning: One or more parsing issues, see `problems()` for details

    ## Warning: Expected 4 pieces. Additional pieces discarded in 6193 rows [1, 2, 3,
    ## 4, 5, 6, 7, 8, 9, 10, 11, 12, 13, 14, 15, 16, 17, 18, 19, 20, ...].

``` r
Eggnog_results
```

    ## # A tibble: 6,193 x 24
    ##    DB1   accessionID1 DB2   accessionID2 seed_ortholog   evalue score eggNOG_OGs
    ##    <chr> <chr>        <chr> <chr>        <chr>            <dbl> <dbl> <chr>     
    ##  1 gi    466393       gb    AAA28942.1   7237.FBpp028~ 0        1840. COG4886@1~
    ##  2 gi    684925       gb    AAC48859.1   1399941.U3PC~ 1.2e-151  543. 4QAQE@102~
    ##  3 gi    4587886      gb    AAD25912.1   387344.LVIS_~ 3.3e-204  718  COG3505@1~
    ##  4 gi    11138334     gb    AAG31329.1   12348.Q8SDH2~ 2.7e- 98  365. 4QBU2@102~
    ##  5 gi    19748446     gb    AAL97894.1   1154860.SAG0~ 5.7e-102  378. 2EYK9@1|r~
    ##  6 gi    38112242     gb    AAR11215.1   3885.XP_0071~ 1.3e- 83  317  28N51@1|r~
    ##  7 gi    55230225     gb    AAV45644.1   272569.rrnAC~ 3  e-110  404. COG1047@1~
    ##  8 gi    60099651     gb    AAX12955.1   630626.EBL_c~ 3.6e-224  784. COG4379@1~
    ##  9 gi    61608605     gb    AAX47095.1   121759.XP_01~ 1.2e-125  456. 2E0J9@1|r~
    ## 10 gi    66932787     gb    AAY58231.1   9913.ENSBTAP~ 4.1e-118  431. COG0386@1~
    ## # ... with 6,183 more rows, and 16 more variables: max_annot_lvl <chr>,
    ## #   COG_category <chr>, Description <chr>, Preferred_name <chr>, GOs <chr>,
    ## #   EC <chr>, KEGG_ko <chr>, KEGG_Pathway <chr>, KEGG_Module <chr>,
    ## #   KEGG_Reaction <chr>, KEGG_rclass <chr>, BRITE <chr>, KEGG_TC <chr>,
    ## #   CAZy <chr>, BiGG_Reaction <chr>, PFAMs <chr>
…
# Identify what the bacterial spacers target
# Spacers - BLASTnr - Entrez - Eggnog
BLAST_clusters_bacteria <- CRISPRscope_blast_cluster_hit_type_2 %>% filter(final_hit == "Bacterial")


# 14'476 bacterial hits
# 14'567 before marking 91 spacers as Viral (from eggnog protein annotation)

BLASTnr_sseqid_qseqid %>% filter(qseqid %in% BLAST_clusters_bacteria$cluster)
```

    ## # A tibble: 1,452 x 3
    ##    DB    accessionID    qseqid
    ##    <chr> <chr>           <dbl>
    ##  1 gb    AAV61121.1         26
    ##  2 emb   CDF01716.1         76
    ##  3 gb    AAV61121.1         84
    ##  4 ref   XP_014259592.1    116
    ##  5 ref   XP_031733868.1    126
    ##  6 gb    MBI3522666.1      129
    ##  7 gb    EHJ26660.1        130
    ##  8 ref   XP_005317372.1    138
    ##  9 ref   WP_090400433.1    139
    ## 10 ref   WP_090400433.1    140
    ## # ... with 1,442 more rows

``` r
# 11'502 have no protein matched / retrieved or eggnong annotation. 
# 2'974 <- 3'065 / 14'567 Spacers (cluster id) marked as "bacterial" have a 


# 14'567 Bacterial marked spacers. From which 3'065



Eggnog_results
```

    ## # A tibble: 6,193 x 24
    ##    DB1   accessionID1 DB2   accessionID2 seed_ortholog   evalue score eggNOG_OGs
    ##    <chr> <chr>        <chr> <chr>        <chr>            <dbl> <dbl> <chr>     
    ##  1 gi    466393       gb    AAA28942.1   7237.FBpp028~ 0        1840. COG4886@1~
    ##  2 gi    684925       gb    AAC48859.1   1399941.U3PC~ 1.2e-151  543. 4QAQE@102~
    ##  3 gi    4587886      gb    AAD25912.1   387344.LVIS_~ 3.3e-204  718  COG3505@1~
    ##  4 gi    11138334     gb    AAG31329.1   12348.Q8SDH2~ 2.7e- 98  365. 4QBU2@102~
    ##  5 gi    19748446     gb    AAL97894.1   1154860.SAG0~ 5.7e-102  378. 2EYK9@1|r~
    ##  6 gi    38112242     gb    AAR11215.1   3885.XP_0071~ 1.3e- 83  317  28N51@1|r~
    ##  7 gi    55230225     gb    AAV45644.1   272569.rrnAC~ 3  e-110  404. COG1047@1~
    ##  8 gi    60099651     gb    AAX12955.1   630626.EBL_c~ 3.6e-224  784. COG4379@1~
    ##  9 gi    61608605     gb    AAX47095.1   121759.XP_01~ 1.2e-125  456. 2E0J9@1|r~
    ## 10 gi    66932787     gb    AAY58231.1   9913.ENSBTAP~ 4.1e-118  431. COG0386@1~
    ## # ... with 6,183 more rows, and 16 more variables: max_annot_lvl <chr>,
    ## #   COG_category <chr>, Description <chr>, Preferred_name <chr>, GOs <chr>,
    ## #   EC <chr>, KEGG_ko <chr>, KEGG_Pathway <chr>, KEGG_Module <chr>,
    ## #   KEGG_Reaction <chr>, KEGG_rclass <chr>, BRITE <chr>, KEGG_TC <chr>,
    ## #   CAZy <chr>, BiGG_Reaction <chr>, PFAMs <chr>

``` r
# Bacterial cluster hits - protein match - eggnog annotations
bactHits_protein_annot <- BLASTnr_sseqid_qseqid %>% filter(qseqid %in% BLAST_clusters_bacteria$cluster) %>% 
  inner_join(Eggnog_results, by=c("DB" = "DB2", "accessionID" = "accessionID2")) %>% 
  select(-DB1, -accessionID1)


# 1,398  bacterial blast hits are annotated with eggnog (12,168 have not). 
bactHits_protein_annot
```

    ## # A tibble: 724 x 23
    ##    DB    accessionID  qseqid seed_ortholog     evalue score eggNOG_OGs          
    ##    <chr> <chr>         <dbl> <chr>              <dbl> <dbl> <chr>               
    ##  1 emb   CDF01716.1       76 1046629.Ssal_0~ 2.2e-199  701. COG0201@1|root,COG0~
    ##  2 ref   WP_09040043~    139 1415630.U771_2~ 4.3e-114  418. COG2977@1|root,COG2~
    ##  3 ref   WP_09040043~    140 1415630.U771_2~ 4.3e-114  418. COG2977@1|root,COG2~
    ##  4 gb    KAE8802034.1    160 4513.MLOC_5846~ 1.2e-162  579. KOG0282@1|root,KOG0~
    ##  5 gb    QGS36746.1      161 1175629.AJTG01~ 1.9e-209  735. COG3853@1|root,COG3~
    ##  6 ref   WP_15980827~    162 1123360.thalar~ 2.3e- 60  238. COG1143@1|root,COG1~
    ##  7 ref   WP_12497713~    165 1423806.JCM154~ 2  e-300 1038. COG1368@1|root,COG1~
    ##  8 gb    OAW71700.1      186 435838.HMPREF0~ 9.1e- 22  110. COG3266@1|root,COG3~
    ##  9 ref   WP_15596784~    220 279808.SH2426   0        1183. COG3147@1|root,COG4~
    ## 10 ref   WP_15596784~    221 279808.SH2426   0        1183. COG3147@1|root,COG4~
    ## # ... with 714 more rows, and 16 more variables: max_annot_lvl <chr>,
    ## #   COG_category <chr>, Description <chr>, Preferred_name <chr>, GOs <chr>,
    ## #   EC <chr>, KEGG_ko <chr>, KEGG_Pathway <chr>, KEGG_Module <chr>,
    ## #   KEGG_Reaction <chr>, KEGG_rclass <chr>, BRITE <chr>, KEGG_TC <chr>,
    ## #   CAZy <chr>, BiGG_Reaction <chr>, PFAMs <chr>
…
## Cog categories - viruses

Export list of sequences (cluster id) that are annotated as viruses from
Eggnog.

``` r
bactHits_protein_annot %>% distinct() %>% 
  separate(max_annot_lvl, into = c("taxid?", "Level"), sep = "[|]") %>% 
  select(Level) %>% distinct() 
```

    ## # A tibble: 46 x 1
    ##    Level              
    ##    <chr>              
    ##  1 Bacilli            
    ##  2 Gammaproteobacteria
    ##  3 Streptophyta       
    ##  4 Alphaproteobacteria
    ##  5 Bacteria           
    ##  6 Bacteroidetes      
    ##  7 Betaproteobacteria 
    ##  8 Metazoa            
    ##  9 Fungi              
    ## 10 Planctomycetes     
    ## # ... with 36 more rows
…
``` r
bactHits_protein_annot
```

    ## # A tibble: 724 x 23
    ##    DB    accessionID  qseqid seed_ortholog     evalue score eggNOG_OGs          
    ##    <chr> <chr>         <dbl> <chr>              <dbl> <dbl> <chr>               
    ##  1 emb   CDF01716.1       76 1046629.Ssal_0~ 2.2e-199  701. COG0201@1|root,COG0~
    ##  2 ref   WP_09040043~    139 1415630.U771_2~ 4.3e-114  418. COG2977@1|root,COG2~
    ##  3 ref   WP_09040043~    140 1415630.U771_2~ 4.3e-114  418. COG2977@1|root,COG2~
    ##  4 gb    KAE8802034.1    160 4513.MLOC_5846~ 1.2e-162  579. KOG0282@1|root,KOG0~
    ##  5 gb    QGS36746.1      161 1175629.AJTG01~ 1.9e-209  735. COG3853@1|root,COG3~
    ##  6 ref   WP_15980827~    162 1123360.thalar~ 2.3e- 60  238. COG1143@1|root,COG1~
    ##  7 ref   WP_12497713~    165 1423806.JCM154~ 2  e-300 1038. COG1368@1|root,COG1~
    ##  8 gb    OAW71700.1      186 435838.HMPREF0~ 9.1e- 22  110. COG3266@1|root,COG3~
    ##  9 ref   WP_15596784~    220 279808.SH2426   0        1183. COG3147@1|root,COG4~
    ## 10 ref   WP_15596784~    221 279808.SH2426   0        1183. COG3147@1|root,COG4~
    ## # ... with 714 more rows, and 16 more variables: max_annot_lvl <chr>,
    ## #   COG_category <chr>, Description <chr>, Preferred_name <chr>, GOs <chr>,
    ## #   EC <chr>, KEGG_ko <chr>, KEGG_Pathway <chr>, KEGG_Module <chr>,
    ## #   KEGG_Reaction <chr>, KEGG_rclass <chr>, BRITE <chr>, KEGG_TC <chr>,
    ## #   CAZy <chr>, BiGG_Reaction <chr>, PFAMs <chr>
…
\#———————————————- \# TODO BLAST bacterial check crisprs

For the bacterial hits, are they mapping to the actual same region of
the genome as it comes from the same database

``` r
#TODO check if only ncbi spacers match ncbi bacteria

# Blast raw results
CRISPRblast_nt_2 %>%  select(qseqid, sseqid, database, stitle)
```

    ## # A tibble: 32,521 x 4
    ##    qseqid sseqid             database stitle                                    
    ##     <dbl> <chr>              <chr>    <chr>                                     
    ##  1      0 gi|1851539906|gb|~ nt       Streptococcus thermophilus strain CS18 ch~
    ##  2      1 gi|1605474704|gb|~ nt       Streptococcus thermophilus strain STCH_33~
    ##  3      2 gi|134103885|gb|E~ nt       Streptococcus thermophilus isolate WTphi8~
    ##  4      3 gi|134103908|gb|E~ nt       Streptococcus thermophilus strain DGCC798~
    ##  5      4 gi|1151245825|gb|~ nt       Streptococcus thermophilus strain APC151,~
    ##  6      5 gi|1418348883|emb~ nt       Streptococcus thermophilus strain N4L gen~
    ##  7      6 gi|339277069|emb|~ nt       Streptococcus thermophilus JIM 8232 compl~
    ##  8      7 gi|1868768375|emb~ nt       Streptococcus thermophilus isolate STH_CI~
    ##  9      8 gi|1851539906|gb|~ nt       Streptococcus thermophilus strain CS18 ch~
    ## 10      9 gi|1826980942|gb|~ nt       Streptococcus thermophilus strain ST64987~
    ## # ... with 32,511 more rows

``` r
CRISPRscope_tbl_26 %>% select(cluster_spacer_identity, Organism, Strain )
```

    ## # A tibble: 50,955 x 3
    ##    cluster_spacer_identity Organism                 Strain         
    ##                      <dbl> <chr>                    <chr>          
    ##  1                    9902 Bifidobacterium_animalis GCF.004135895.1
    ##  2                    9903 Bifidobacterium_animalis GCF.004135895.1
    ##  3                    5321 Bifidobacterium_animalis GCF.004135895.1
    ##  4                    5322 Bifidobacterium_animalis GCF.004135895.1
    ##  5                    5323 Bifidobacterium_animalis GCF.004135895.1
    ##  6                    1058 Bifidobacterium_animalis GCF.004135895.1
    ##  7                    1585 Bifidobacterium_animalis GCF.004135895.1
    ##  8                    5324 Bifidobacterium_animalis GCF.004135895.1
    ##  9                    5325 Bifidobacterium_animalis GCF.004135895.1
    ## 10                    9904 Bifidobacterium_animalis GCF.004135895.1
    ## # ... with 50,945 more rows
…
    ## # A tibble: 4 x 2
    ##   ProjectID             nb_votu_per_project
    ##   <chr>                               <int>
    ## 1 Pasolli et al. 2020                   355
    ## 2 Swiss raclette                        388
    ## 3 Swiss starter culture                 506
    ## 4 Walsh et al. 2020                     294

``` r
megagenomic_project_votu %>% mutate(sterm = ifelse(vOTU %in% votu_in_which_species_sterm$vOTU, "sterm", "unknown")) 
```

    ## # A tibble: 1,543 x 3
    ##    ProjectID           vOTU        sterm  
    ##    <chr>               <chr>       <chr>  
    ##  1 Pasolli et al. 2020 Sg_117111   unknown
    ##  2 Pasolli et al. 2020 Sg_065991   unknown
    ##  3 Pasolli et al. 2020 Sg_033392   unknown
    ##  4 Pasolli et al. 2020 Sg_160195   sterm  
    ##  5 Pasolli et al. 2020 Sg_313517   sterm  
    ##  6 Pasolli et al. 2020 Sg_592649   unknown
    ##  7 Pasolli et al. 2020 Sg_107964   unknown
    ##  8 Pasolli et al. 2020 Sg_158064   unknown
    ##  9 Pasolli et al. 2020 Sg_239527   sterm  
    ## 10 Pasolli et al. 2020 vOTU_108347 unknown
    ## # ... with 1,533 more rows
…
